{
	"id" : "volumio",
	"name" : "Volumio",
	"description" : "Plugin pour controler le player Volumio",
	"licence" : "AGPL",
	"author" : "David Ferreira",
	"require" : "3.1",
	"category" : "multimedia",
	"hasDependency" : false,
	"hasOwnDeamon" : false,
	"maxDependancyInstallTime" : 0
}
